module tgm-bot

go 1.16

require (
	github.com/andybalholm/brotli v1.0.3 // indirect
	github.com/gofiber/fiber/v2 v2.15.0
	github.com/joho/godotenv v1.3.0
	github.com/klauspost/compress v1.13.1 // indirect
	github.com/sirupsen/logrus v1.8.1
	github.com/valyala/fasthttp v1.28.0 // indirect
	golang.org/x/sys v0.0.0-20210630005230-0f9fa26af87c // indirect
)
